{
  "photos": {
    "page": 1,
    "pages": 1919,
    "perpage": 100,
    "total": "191895",
    "photo": [
      {
        "id": "51140125339",
        "owner": "192071905@N06",
        "secret": "8ede520502",
        "server": "65535",
        "farm": 66,
        "title": "Best glucosamine for dogs: An intimate friend or a health assistant?",
        "ispublic": 1,
        "isfriend": 0,
        "isfamily": 0
      },
      {
        "id": "51140432095",
        "owner": "189692364@N02",
        "secret": "f2ef6f2322",
        "server": "65535",
        "farm": 66,
        "title": "LOTD#204",
        "ispublic": 1,
        "isfriend": 0,
        "isfamily": 0
      },
      {
        "id": "51138651047",
        "owner": "150557126@N03",
        "secret": "f309d583cb",
        "server": "65535",
        "farm": 66,
        "title": "American Dog in Thailand",
        "ispublic": 1,
        "isfriend": 0,
        "isfamily": 0
      },
      {
        "id": "51138649847",
        "owner": "192846100@N07",
        "secret": "2344de0eef",
        "server": "65535",
        "farm": 66,
        "title": "Can you REALLY make money counting cards? A 몰디브게임사이트 simulation #1092",
        "ispublic": 1,
        "isfriend": 0,
        "isfamily": 0
      }
    ]
  }
}
